// Jest Snapshot v1, https://goo.gl/fbAQLP

exports[`renders correctly when passed a client 1`] = `
<tr
  className="ClientsListItem"
  data-testid="ClientsListItem"
>
  <td>
    Hugh Test
  </td>
  <td>
    hughtest@test.com
  </td>
  <td />
  <td>
    Test Ltd
  </td>
</tr>
`;
